{
    "swagger": "2.0",
    "info": {
      "version": "1.0.0",
      "title": "API Restful - Tienda electrónica",
      "description": "Lógica para una tienda electrónica",
      "license": {
        "name": "MIT",
        "url": "https://opensource.org/licenses/MIT"
      }
    },
    "host": "localhost:3500",
    "basePath": "/",
    "tags": [
      {
        "name": "Users",
        "description": "API for users in the system"
      }
    ],
    "schemes": ["http"],
    "consumes": ["application/json"],
    "produces": ["application/json"]
  }